Run #199
Frequency Summary:
CAUSE|11| 0 0 0 0 0 1200 1200 1200 1200 1400 1400 1400 1400 1400 1400 1400 1400 1400 1400 1400 0 0 0 0 0 0 0 0 0 0 0
INTERVENTION|11| 0 0 0 0 0 0 0 0 0 0 1600 1600 1600 1600 1600 1200 1200 1200 1200 1200 1200 1200 1200 1200 1200 1200 1200 1200 1200 1200 1200
OUTCOME|11| 2000 2000 2000 2000 2000 2000 2000 1908 1802 1722 1660 1619 1613 1651 1692 1727 1772 1757 1709 1662 1627 1627 1627 1627 1627 1627 1627 1627 1627 1627 1627
PROBLEM|11| 0 0 0 0 0 0 700 1184 1488 1686 1816 1714 1608 1512 1417 1325 1422 1512 1592 1669 1735 1052 692 376 220 112 60 31 16 6 0

Squares Summary:
INTERVENTION|11| 0 0 0 0 0 0 0 0 0 0 12800 12800 12800 12800 12800 7200 7200 7200 7200 7200 7200 7200 7200 7200 7200 7200 7200 7200 7200 7200 7200
CAUSE|11| 0 0 0 0 0 7200 7200 7200 7200 9800 9800 9800 9800 9800 9800 9800 9800 9800 9800 9800 0 0 0 0 0 0 0 0 0 0 0
PROBLEM|11| 0 0 0 0 0 0 4900 9908 13536 16062 17696 15832 13994 12456 11015 9725 11104 12408 13618 14833 15837 8300 5070 2250 1202 606 262 113 72 18 0
OUTCOME|11| 20000 20000 20000 20000 20000 20000 20000 18344 16436 15038 13970 13289 13159 13781 14440 15045 15844 15571 14761 13974 13395 13395 13395 13395 13395 13395 13395 13395 13395 13395 13395
