Run #99
Frequency Summary:
CAUSE|11| 0 0 0 0 0 600 600 600 600 700 700 700 700 700 700 700 700 700 700 700 0 0 0 0 0 0 0 0 0 0 0 0 0 0 0 0 0 0 0 0 0 0 0 0 0 0 0 0 0 0 0 0 0 0 0 0 0 0 0 0 0 0 0 0 0 0 0 0 0 0 0 0 0 0 0 0 0 0 0 0 0 0 0 0 0 0 0 0 0 0 0 0 0 0 0 0 0 0 0 0 0
INTERVENTION|11| 0 0 0 0 0 0 0 0 0 0 800 800 800 800 800 600 600 600 600 600 600 600 600 600 600 600 600 600 600 600 600 600 600 600 600 600 600 600 600 600 600 600 600 600 600 600 600 600 600 600 600 600 600 600 600 600 600 600 600 600 600 600 600 600 600 600 600 600 600 600 600 600 600 600 600 600 600 600 600 600 600 600 600 600 600 600 600 600 600 600 600 600 600 600 600 600 600 600 600 600 600
OUTCOME|11| 1000 1000 1000 1000 1000 1000 792 444 262 166 56 30 16 10 0 0 0 0 0 0 0 0 85 138 198 260 303 326 335 339 346 351 353 353 353 357 357 357 357 357 357 357 357 357 357 357 357 357 357 357 357 357 357 357 357 357 357 357 357 357 357 357 357 357 357 357 357 357 357 357 357 357 357 357 357 357 357 357 357 357 357 357 357 357 357 357 357 357 357 357 357 357 357 357 357 357 357 357 357 357 357
PROBLEM|11| 0 0 0 0 0 0 336 583 773 857 911 855 809 768 720 665 710 754 796 836 864 463 318 179 89 51 24 12 9 3 3 0 0 0 0 0 0 0 0 0 0 0 0 0 0 0 0 0 0 0 0 0 0 0 0 0 0 0 0 0 0 0 0 0 0 0 0 0 0 0 0 0 0 0 0 0 0 0 0 0 0 0 0 0 0 0 0 0 0 0 0 0 0 0 0 0 0 0 0 0 0

Squares Summary:
INTERVENTION|11| 0 0 0 0 0 0 0 0 0 0 6400 6400 6400 6400 6400 3600 3600 3600 3600 3600 3600 3600 3600 3600 3600 3600 3600 3600 3600 3600 3600 3600 3600 3600 3600 3600 3600 3600 3600 3600 3600 3600 3600 3600 3600 3600 3600 3600 3600 3600 3600 3600 3600 3600 3600 3600 3600 3600 3600 3600 3600 3600 3600 3600 3600 3600 3600 3600 3600 3600 3600 3600 3600 3600 3600 3600 3600 3600 3600 3600 3600 3600 3600 3600 3600 3600 3600 3600 3600 3600 3600 3600 3600 3600 3600 3600 3600 3600 3600 3600 3600
CAUSE|11| 0 0 0 0 0 3600 3600 3600 3600 4900 4900 4900 4900 4900 4900 4900 4900 4900 4900 4900 0 0 0 0 0 0 0 0 0 0 0 0 0 0 0 0 0 0 0 0 0 0 0 0 0 0 0 0 0 0 0 0 0 0 0 0 0 0 0 0 0 0 0 0 0 0 0 0 0 0 0 0 0 0 0 0 0 0 0 0 0 0 0 0 0 0 0 0 0 0 0 0 0 0 0 0 0 0 0 0 0
PROBLEM|11| 0 0 0 0 0 0 2352 4801 7121 8129 8831 7801 7023 6358 5636 4865 5544 6170 6814 7448 7886 3519 2232 1173 505 283 68 36 27 9 9 0 0 0 0 0 0 0 0 0 0 0 0 0 0 0 0 0 0 0 0 0 0 0 0 0 0 0 0 0 0 0 0 0 0 0 0 0 0 0 0 0 0 0 0 0 0 0 0 0 0 0 0 0 0 0 0 0 0 0 0 0 0 0 0 0 0 0 0 0 0
OUTCOME|11| 10000 10000 10000 10000 10000 10000 6672 3408 2028 1228 448 212 136 100 0 0 0 0 0 0 0 0 231 460 716 990 1175 1280 1325 1341 1386 1411 1415 1415 1415 1423 1423 1423 1423 1423 1423 1423 1423 1423 1423 1423 1423 1423 1423 1423 1423 1423 1423 1423 1423 1423 1423 1423 1423 1423 1423 1423 1423 1423 1423 1423 1423 1423 1423 1423 1423 1423 1423 1423 1423 1423 1423 1423 1423 1423 1423 1423 1423 1423 1423 1423 1423 1423 1423 1423 1423 1423 1423 1423 1423 1423 1423 1423 1423 1423 1423
