Run #199
Frequency Summary:
CAUSE|11| 0 0 0 0 0 1200 1200 1200 1200 1400 1400 1400 1400 1400 1400 1400 1400 1400 1400 1400 0 0 0 0 0 0 0 0 0 0 0
INTERVENTION|11| 0 0 0 0 0 0 0 0 0 0 1600 1600 1600 1600 1600 1200 1200 1200 1200 1200 1200 1200 1200 1200 1200 1200 1200 1200 1200 1200 1200
OUTCOME|11| 2000 2000 2000 2000 2000 2000 2000 1902 1750 1570 1400 1214 1036 873 725 607 510 429 330 246 206 206 206 206 206 206 206 206 206 206 206
PROBLEM|11| 0 0 0 0 0 0 665 1153 1508 1666 1843 1743 1642 1540 1437 1323 1423 1534 1609 1678 1740 1047 644 405 262 137 87 50 33 14 11

Squares Summary:
INTERVENTION|11| 0 0 0 0 0 0 0 0 0 0 12800 12800 12800 12800 12800 7200 7200 7200 7200 7200 7200 7200 7200 7200 7200 7200 7200 7200 7200 7200 7200
CAUSE|11| 0 0 0 0 0 7200 7200 7200 7200 9800 9800 9800 9800 9800 9800 9800 9800 9800 9800 9800 0 0 0 0 0 0 0 0 0 0 0
PROBLEM|11| 0 0 0 0 0 0 4655 9451 13526 15652 17797 15979 14256 12628 11105 9529 10965 12670 13809 14906 15846 8299 4586 2915 1670 835 495 238 193 40 31
OUTCOME|11| 20000 20000 20000 20000 20000 20000 20000 18236 15676 12980 10688 8564 6904 5493 4307 3529 2952 2491 1962 1460 1200 1200 1200 1200 1200 1200 1200 1200 1200 1200 1200
