Run #199
Frequency Summary:
CAUSE|11| 0 0 0 0 0 1200 1200 1200 1200 1400 1400 1400 1400 1400 1400 1400 1400 1400 1400 1400 0 0 0 0 0 0 0 0 0 0 0
INTERVENTION|11| 0 0 0 0 0 0 0 0 0 0 1600 1600 1600 1600 1600 1200 1200 1200 1200 1200 1200 1200 1200 1200 1200 1200 1200 1200 1200 1200 1200
OUTCOME|11| 2000 2000 2000 2000 2000 2000 2000 2000 2000 2000 2000 2000 2000 2000 2000 1998 1997 1999 1999 1999 2000 2000 1895 1723 1599 1469 1416 1341 1299 1280 1264
PROBLEM|11| 0 0 0 0 0 0 756 1184 1561 1724 1839 1741 1644 1539 1438 1343 1440 1531 1608 1680 1753 1108 622 376 188 96 68 43 21 8 0

Squares Summary:
INTERVENTION|11| 0 0 0 0 0 0 0 0 0 0 12800 12800 12800 12800 12800 7200 7200 7200 7200 7200 7200 7200 7200 7200 7200 7200 7200 7200 7200 7200 7200
CAUSE|11| 0 0 0 0 0 7200 7200 7200 7200 9800 9800 9800 9800 9800 9800 9800 9800 9800 9800 9800 0 0 0 0 0 0 0 0 0 0 0
PROBLEM|11| 0 0 0 0 0 0 5292 9698 13867 16148 17743 16001 14378 12705 11206 9893 11318 12687 13802 14916 16065 8858 4270 2406 1122 616 440 303 57 22 0
OUTCOME|11| 20000 20000 20000 20000 20000 20000 20000 20000 20000 20000 20000 20000 20000 20000 20000 19962 19945 19981 19981 19981 20000 20000 18183 15403 13529 11519 10734 9573 8899 8606 8364
